<?xml version="1.0" encoding="UTF-8" standalone="no"?>
<!-- Created with Inkscape (http://www.inkscape.org/) -->

<svg
   xmlns:dc="http://purl.org/dc/elements/1.1/"
   xmlns:cc="http://creativecommons.org/ns#"
   xmlns:rdf="http://www.w3.org/1999/02/22-rdf-syntax-ns#"
   xmlns:svg="http://www.w3.org/2000/svg"
   xmlns="http://www.w3.org/2000/svg"
   xmlns:sodipodi="http://sodipodi.sourceforge.net/DTD/sodipodi-0.dtd"
   xmlns:inkscape="http://www.inkscape.org/namespaces/inkscape"
   width="48"
   height="48"
   viewBox="0 0 48 48"
   id="svg2"
   version="1.1"
   inkscape:version="0.91 r13725"
   sodipodi:docname="archive.svg">
  <defs
     id="defs4" />
  <sodipodi:namedview
     id="base"
     pagecolor="#ffffff"
     bordercolor="#666666"
     borderopacity="1.0"
     inkscape:pageopacity="0.0"
     inkscape:pageshadow="2"
     inkscape:zoom="10.66"
     inkscape:cx="18.312424"
     inkscape:cy="38.635006"
     inkscape:document-units="px"
     inkscape:current-layer="layer1"
     showgrid="false"
     showguides="false"
     inkscape:window-width="1920"
     inkscape:window-height="1017"
     inkscape:window-x="0"
     inkscape:window-y="30"
     inkscape:window-maximized="1"
     units="px"
     guidetolerance="10000"
     inkscape:snap-perpendicular="true"
     inkscape:snap-tangential="true" />
  <metadata
     id="metadata7">
    <rdf:RDF>
      <cc:Work
         rdf:about="">
        <dc:format>image/svg+xml</dc:format>
        <dc:type
           rdf:resource="http://purl.org/dc/dcmitype/StillImage" />
        <dc:title></dc:title>
      </cc:Work>
    </rdf:RDF>
  </metadata>
  <g
     inkscape:label="Layer 1"
     inkscape:groupmode="layer"
     id="layer1"
     transform="translate(0,-1004.3622)">
    <rect
       style="color:#000000;clip-rule:nonzero;display:inline;overflow:visible;visibility:visible;opacity:1;isolation:auto;mix-blend-mode:normal;color-interpolation:sRGB;color-interpolation-filters:linearRGB;solid-color:#000000;solid-opacity:1;fill:#4caf50;fill-opacity:0;fill-rule:evenodd;stroke:#2b823a;stroke-width:1;stroke-linecap:butt;stroke-linejoin:miter;stroke-miterlimit:2.29999995;stroke-dasharray:none;stroke-dashoffset:0;stroke-opacity:0;color-rendering:auto;image-rendering:auto;shape-rendering:auto;text-rendering:auto;enable-background:accumulate"
       id="rect4219"
       width="433.45645"
       height="521.1377"
       x="108.89445"
       y="198.17723"
       rx="112.26631"
       ry="96.166496" />
    <g
       id="g5541"
       transform="matrix(0.12686811,0,0,0.12688819,-28.270515,950.04567)">
      <rect
         ry="96.166496"
         rx="112.266"
         y="430.10825"
         x="224.15285"
         height="375.47369"
         width="376.18082"
         id="rect4221"
         style="color:#000000;clip-rule:nonzero;display:inline;overflow:visible;visibility:visible;opacity:1;isolation:auto;mix-blend-mode:normal;color-interpolation:sRGB;color-interpolation-filters:linearRGB;solid-color:#000000;solid-opacity:1;fill:#4caf50;fill-opacity:0;fill-rule:evenodd;stroke:#2bcb60;stroke-width:1;stroke-linecap:butt;stroke-linejoin:miter;stroke-miterlimit:4;stroke-dasharray:none;stroke-dashoffset:0;stroke-opacity:1;color-rendering:auto;image-rendering:auto;shape-rendering:auto;text-rendering:auto;enable-background:accumulate" />
      <rect
         ry="96.166496"
         rx="112.266"
         y="461.22095"
         x="277.89297"
         height="146.37111"
         width="280.01428"
         id="rect4223"
         style="color:#000000;clip-rule:nonzero;display:inline;overflow:visible;visibility:visible;opacity:1;isolation:auto;mix-blend-mode:normal;color-interpolation:sRGB;color-interpolation-filters:linearRGB;solid-color:#000000;solid-opacity:1;fill:#4caf50;fill-opacity:0;fill-rule:evenodd;stroke:#2bcb60;stroke-width:1;stroke-linecap:butt;stroke-linejoin:miter;stroke-miterlimit:4;stroke-dasharray:none;stroke-dashoffset:0;stroke-opacity:1;color-rendering:auto;image-rendering:auto;shape-rendering:auto;text-rendering:auto;enable-background:accumulate" />
      <rect
         style="color:#000000;clip-rule:nonzero;display:inline;overflow:visible;visibility:visible;opacity:1;isolation:auto;mix-blend-mode:normal;color-interpolation:sRGB;color-interpolation-filters:linearRGB;solid-color:#000000;solid-opacity:1;fill:#4caf50;fill-opacity:0;fill-rule:evenodd;stroke:#2bcb60;stroke-width:1;stroke-linecap:butt;stroke-linejoin:miter;stroke-miterlimit:4;stroke-dasharray:none;stroke-dashoffset:0;stroke-opacity:1;color-rendering:auto;image-rendering:auto;shape-rendering:auto;text-rendering:auto;enable-background:accumulate"
         id="rect4225"
         width="280.01428"
         height="146.37111"
         x="277.18588"
         y="627.39105"
         rx="112.266"
         ry="96.166496" />
      <rect
         ry="28.991379"
         rx="112.266"
         y="524.15344"
         x="400.22244"
         height="28.991379"
         width="28.991379"
         id="rect4227"
         style="color:#000000;clip-rule:nonzero;display:inline;overflow:visible;visibility:visible;opacity:1;isolation:auto;mix-blend-mode:normal;color-interpolation:sRGB;color-interpolation-filters:linearRGB;solid-color:#000000;solid-opacity:1;fill:#4caf50;fill-opacity:0;fill-rule:evenodd;stroke:#2bcb60;stroke-width:1;stroke-linecap:butt;stroke-linejoin:miter;stroke-miterlimit:4;stroke-dasharray:none;stroke-dashoffset:0;stroke-opacity:1;color-rendering:auto;image-rendering:auto;shape-rendering:auto;text-rendering:auto;enable-background:accumulate" />
      <rect
         style="color:#000000;clip-rule:nonzero;display:inline;overflow:visible;visibility:visible;opacity:1;isolation:auto;mix-blend-mode:normal;color-interpolation:sRGB;color-interpolation-filters:linearRGB;solid-color:#000000;solid-opacity:1;fill:#4caf50;fill-opacity:0;fill-rule:evenodd;stroke:#2bcb60;stroke-width:1;stroke-linecap:butt;stroke-linejoin:miter;stroke-miterlimit:4;stroke-dasharray:none;stroke-dashoffset:0;stroke-opacity:1;color-rendering:auto;image-rendering:auto;shape-rendering:auto;text-rendering:auto;enable-background:accumulate"
         id="rect4229"
         width="28.991379"
         height="28.991379"
         x="400.22244"
         y="691.73773"
         rx="112.266"
         ry="28.991379" />
      <path
         inkscape:connector-curvature="0"
         id="path4233"
         d="m 322.90329,804.5042 c -26.31287,-2.75047 -51.34115,-13.83683 -69.20792,-30.65585 -13.71145,-12.90739 -22.76177,-28.29299 -27.24556,-46.31763 -1.4811,-5.95395 -1.49727,-6.95169 -1.72129,-106.21995 -0.24842,-110.08017 -0.34013,-107.31083 4.00093,-120.81322 4.51743,-14.05097 11.07613,-24.42723 23.0168,-36.41397 15.04595,-15.10399 32.872,-24.91379 54.68765,-30.095 14.1518,-3.36104 15.79689,-3.4146 105.13554,-3.4231 51.69996,-0.005 86.59959,0.26583 90.50967,0.70216 26.70824,2.98043 50.81349,13.71276 68.59356,30.53978 13.96703,13.21837 22.9857,28.47018 27.38791,46.31672 1.52965,6.20116 1.53327,6.418 1.76817,105.91594 0.2074,87.85132 0.10305,100.60793 -0.87797,107.32332 -4.36672,29.89156 -24.1188,55.48142 -54.44526,70.53672 -14.85762,7.37593 -27.41369,10.98439 -44.09232,12.67158 -8.98001,0.90841 -168.75496,0.84765 -177.50991,-0.0675 l 0,3e-5 z m 146.29536,-32.01282 c 31.13042,-5.10326 53.42,-15.33611 70.00357,-32.13769 11.93571,-12.09262 17.08346,-22.56494 18.13277,-36.88845 2.26977,-30.98305 -26.59161,-59.84202 -71.34904,-71.34307 -16.70518,-4.29264 -19.18402,-4.48188 -63.1028,-4.81759 -43.48644,-0.33241 -51.71756,0.0441 -66.71366,3.05172 -34.47788,6.91487 -62.48433,24.86828 -73.82218,47.32339 -8.34778,16.53316 -6.85657,36.32889 3.94997,52.43577 16.06772,23.94854 50.06526,40.25379 90.97748,43.63289 1.75009,0.14455 21.47837,0.19472 43.84062,0.11149 34.61358,-0.12882 41.76252,-0.33228 48.08327,-1.36846 z m 0.7071,-166.17009 c 31.13043,-5.10327 53.42,-15.33611 70.00357,-32.13769 11.93572,-12.09262 17.08346,-22.56495 18.13278,-36.88845 2.26976,-30.98305 -26.59161,-59.84202 -71.34904,-71.34307 -16.70518,-4.29264 -19.18402,-4.48188 -63.1028,-4.8176 -43.48644,-0.33241 -51.71757,0.0441 -66.71366,3.05173 -34.47788,6.91486 -62.48434,24.86828 -73.82218,47.32339 -8.34778,16.53316 -6.85658,36.32889 3.94996,52.43577 16.06773,23.94853 50.06527,40.25379 90.97749,43.63289 1.75009,0.14454 21.47837,0.19471 43.84062,0.11149 34.61358,-0.12882 41.76252,-0.33229 48.08326,-1.36846 z"
         style="color:#000000;clip-rule:nonzero;display:inline;overflow:visible;visibility:visible;opacity:1;isolation:auto;mix-blend-mode:normal;color-interpolation:sRGB;color-interpolation-filters:linearRGB;solid-color:#000000;solid-opacity:1;fill:#2bcb60;fill-opacity:1;fill-rule:nonzero;stroke:#2bcb60;stroke-width:1;stroke-linecap:butt;stroke-linejoin:miter;stroke-miterlimit:4;stroke-dasharray:none;stroke-dashoffset:0;stroke-opacity:1;color-rendering:auto;image-rendering:auto;shape-rendering:auto;text-rendering:auto;enable-background:accumulate" />
      <path
         inkscape:connector-curvature="0"
         id="path4235"
         d="m 408.60975,551.15429 c -4.82776,-2.24779 -7.29173,-5.89099 -7.77093,-11.49007 -0.29301,-3.4235 -0.0659,-4.64641 1.3545,-7.29497 3.74442,-6.98186 12.2402,-9.76046 18.92206,-6.18859 4.35274,2.32681 7.04471,6.32327 7.52863,11.1769 0.33004,3.31031 0.0983,4.39274 -1.6521,7.71533 -1.65658,3.14455 -2.73836,4.23171 -5.80478,5.83363 -4.63009,2.41878 -7.78117,2.48086 -12.57738,0.24777 z"
         style="color:#000000;clip-rule:nonzero;display:inline;overflow:visible;visibility:visible;opacity:1;isolation:auto;mix-blend-mode:normal;color-interpolation:sRGB;color-interpolation-filters:linearRGB;solid-color:#000000;solid-opacity:1;fill:#2bcb60;fill-opacity:1;fill-rule:nonzero;stroke:#2bcb60;stroke-width:1;stroke-linecap:butt;stroke-linejoin:miter;stroke-miterlimit:4;stroke-dasharray:none;stroke-dashoffset:0;stroke-opacity:1;color-rendering:auto;image-rendering:auto;shape-rendering:auto;text-rendering:auto;enable-background:accumulate" />
      <path
         inkscape:connector-curvature="0"
         id="path4237"
         d="m 408.60975,718.7386 c -4.82776,-2.24779 -7.29173,-5.89099 -7.77093,-11.49008 -0.29301,-3.42349 -0.0659,-4.6464 1.3545,-7.29496 3.74442,-6.98186 12.2402,-9.76046 18.92206,-6.18859 4.35274,2.32681 7.04471,6.32327 7.52863,11.1769 0.33004,3.3103 0.0983,4.39274 -1.6521,7.71532 -1.65658,3.14456 -2.73836,4.23171 -5.80478,5.83363 -4.63009,2.41879 -7.78117,2.48087 -12.57738,0.24778 z"
         style="color:#000000;clip-rule:nonzero;display:inline;overflow:visible;visibility:visible;opacity:1;isolation:auto;mix-blend-mode:normal;color-interpolation:sRGB;color-interpolation-filters:linearRGB;solid-color:#000000;solid-opacity:1;fill:#2bcb60;fill-opacity:1;fill-rule:nonzero;stroke:#2bcb60;stroke-width:1;stroke-linecap:butt;stroke-linejoin:miter;stroke-miterlimit:4;stroke-dasharray:none;stroke-dashoffset:0;stroke-opacity:1;color-rendering:auto;image-rendering:auto;shape-rendering:auto;text-rendering:auto;enable-background:accumulate" />
      <path
         inkscape:connector-curvature="0"
         id="path4241"
         d="m 377.98187,606.84192 c -31.53618,-2.31497 -61.44527,-13.86144 -79.44264,-30.66899 -7.00361,-6.5406 -11.29657,-12.29362 -15.01048,-20.1156 -10.24969,-21.58726 -5.1642,-43.91038 14.24923,-62.54805 15.76175,-15.13191 37.15171,-24.8244 66.06176,-29.93474 8.50054,-1.50262 10.55737,-1.56242 53.74011,-1.56242 48.88527,0 50.18916,0.0839 67.88225,4.36869 25.645,6.2105 48.25138,19.5952 60.5917,35.87489 3.79088,5.00104 8.83217,15.32404 10.21696,20.92116 0.56111,2.26792 0.93139,7.27881 0.88828,12.02082 -0.0856,9.41423 -1.83943,15.92367 -6.5728,24.39518 -14.06412,25.1711 -49.52158,43.5144 -90.79528,46.97136 -8.04986,0.67424 -73.38593,0.89601 -81.80909,0.2777 z m 41.28371,-54.1291 c 1.67161,-0.49946 4.16708,-2.12439 5.86266,-3.81746 7.53689,-7.52578 5.04095,-19.7715 -4.87403,-23.91322 -12.02585,-5.02349 -24.48874,7.93108 -19.01145,19.76148 3.25099,7.02181 10.4863,10.22106 18.02282,7.9692 z"
         style="color:#000000;clip-rule:nonzero;display:inline;overflow:visible;visibility:visible;opacity:1;isolation:auto;mix-blend-mode:normal;color-interpolation:sRGB;color-interpolation-filters:linearRGB;solid-color:#000000;solid-opacity:1;fill:#2bcb60;fill-opacity:1;fill-rule:nonzero;stroke:#2bcb60;stroke-width:1;stroke-linecap:butt;stroke-linejoin:miter;stroke-miterlimit:4;stroke-dasharray:none;stroke-dashoffset:0;stroke-opacity:1;color-rendering:auto;image-rendering:auto;shape-rendering:auto;text-rendering:auto;enable-background:accumulate" />
      <path
         inkscape:connector-curvature="0"
         id="path4251"
         d="m 368.08238,605.46645 c -27.50137,-3.71726 -53.22221,-14.71192 -69.09518,-29.53552 -13.46179,-12.57183 -20.00028,-26.33451 -20.00028,-42.09801 0,-11.05337 3.32048,-20.54405 10.68124,-30.52943 7.67741,-10.41492 21.61047,-21.38558 35.0669,-27.6111 12.25148,-5.66807 30.68462,-10.85394 44.74298,-12.58774 7.7726,-0.95859 83.17544,-0.97485 94.92849,-0.0205 16.1621,1.3124 34.78783,6.73045 50.06179,14.5625 10.80226,5.53909 19.11509,11.67217 26.7432,19.73075 4.84943,5.12309 6.4478,7.46549 10.03687,14.70901 4.56018,9.20344 5.62424,13.37686 5.62206,22.05058 -0.003,10.54622 -2.8078,19.77882 -8.80956,28.9949 -4.01447,6.16449 -14.56611,16.34705 -22.24841,21.47022 -16.63678,11.09471 -39.04352,18.72915 -62.4196,21.26766 -10.75366,1.1678 -86.04401,0.84916 -95.3105,-0.40335 z m 52.68552,-53.20274 c 11.14737,-5.06415 11.81869,-21.0863 1.12015,-26.73447 -3.32513,-1.75546 -9.07916,-2.21593 -12.31534,-0.98553 -2.72241,1.03506 -6.78637,4.94422 -8.3728,8.05387 -2.14624,4.20698 -1.61096,10.7242 1.20973,14.72885 4.05692,5.75977 11.90291,7.86988 18.35826,4.93728 z"
         style="color:#000000;clip-rule:nonzero;display:inline;overflow:visible;visibility:visible;opacity:1;isolation:auto;mix-blend-mode:normal;color-interpolation:sRGB;color-interpolation-filters:linearRGB;solid-color:#000000;solid-opacity:1;fill:#abeebe;fill-opacity:1;fill-rule:nonzero;stroke:#2bcb60;stroke-width:1;stroke-linecap:butt;stroke-linejoin:miter;stroke-miterlimit:4;stroke-dasharray:none;stroke-dashoffset:0;stroke-opacity:1;color-rendering:auto;image-rendering:auto;shape-rendering:auto;text-rendering:auto;enable-background:accumulate" />
      <path
         inkscape:connector-curvature="0"
         id="path4253"
         d="m 377.27476,773.01201 c -31.53617,-2.31497 -61.44527,-13.86143 -79.44264,-30.66899 -7.00361,-6.5406 -11.29657,-12.29361 -15.01047,-20.1156 -10.2497,-21.58726 -5.16421,-43.91037 14.24922,-62.54805 15.76176,-15.13191 37.15172,-24.8244 66.06176,-29.93474 8.50054,-1.50261 10.55737,-1.56241 53.74011,-1.56241 48.88527,0 50.18916,0.0839 67.88225,4.36868 25.645,6.2105 48.25139,19.5952 60.5917,35.87489 3.79088,5.00104 8.83218,15.32404 10.21697,20.92116 0.5611,2.26792 0.93138,7.27881 0.88827,12.02082 -0.0856,9.41424 -1.83942,15.92368 -6.5728,24.39518 -14.06412,25.1711 -49.52158,43.51441 -90.79527,46.97137 -8.04987,0.67423 -73.38593,0.89601 -81.8091,0.27769 z m 41.99082,-52.71488 c 1.67161,-0.49946 4.16708,-2.12439 5.86266,-3.81746 7.53689,-7.52578 5.04095,-19.7715 -4.87403,-23.91322 -12.02585,-5.02349 -24.48874,7.93108 -19.01145,19.76147 3.25099,7.02182 10.4863,10.22107 18.02282,7.96921 z"
         style="color:#000000;clip-rule:nonzero;display:inline;overflow:visible;visibility:visible;opacity:1;isolation:auto;mix-blend-mode:normal;color-interpolation:sRGB;color-interpolation-filters:linearRGB;solid-color:#000000;solid-opacity:1;fill:#abeebe;fill-opacity:1;fill-rule:nonzero;stroke:#2bcb60;stroke-width:1;stroke-linecap:butt;stroke-linejoin:miter;stroke-miterlimit:4;stroke-dasharray:none;stroke-dashoffset:0;stroke-opacity:1;color-rendering:auto;image-rendering:auto;shape-rendering:auto;text-rendering:auto;enable-background:accumulate" />
    </g>
  </g>
</svg>
